{
    "name": "Controls",
    "maps": [
        {
            "name": "Player",
            "id": "d321dc61-cc10-46c5-927f-d1a17368c1a9",
            "actions": [
                {
                    "name": "Jump",
                    "type": "Button",
                    "id": "6aff9f1a-abe2-4af8-b916-dd35c49d3692",
                    "expectedControlType": "Button",
                    "processors": "",
                    "interactions": "",
                    "initialStateCheck": false
                },
                {
                    "name": "Dodge",
                    "type": "Button",
                    "id": "064e01bd-1db2-45d6-8437-225c4885a12b",
                    "expectedControlType": "Button",
                    "processors": "",
                    "interactions": "",
                    "initialStateCheck": false
                },
                {
                    "name": "Move",
                    "type": "Value",
                    "id": "3bcb3fac-9d99-4a6d-a384-039cb2e52657",
                    "expectedControlType": "Vector2",
                    "processors": "",
                    "interactions": "",
                    "initialStateCheck": true
                },
                {
                    "name": "Look",
                    "type": "Value",
                    "id": "07d6750d-d892-44f1-98ec-7f01e8f0520c",
                    "expectedControlType": "Vector2",
                    "processors": "",
                    "interactions": "",
                    "initialStateCheck": true
                },
                {
                    "name": "Target",
                    "type": "Button",
                    "id": "a99e738d-7080-438c-bc83-7b5f6b3d16d6",
                    "expectedControlType": "Button",
                    "processors": "",
                    "interactions": "",
                    "initialStateCheck": false
                },
                {
                    "name": "Cancel",
                    "type": "Button",
                    "id": "94f38429-6de6-4812-a95d-fba54d65afd2",
                    "expectedControlType": "Button",
                    "processors": "",
                    "interactions": "",
                    "initialStateCheck": false
                },
                {
                    "name": "Attack",
                    "type": "Button",
                    "id": "62b55a9e-11f8-4861-bbf3-09db26d11579",
                    "expectedControlType": "Button",
                    "processors": "",
                    "interactions": "",
                    "initialStateCheck": false
                }
            ],
            "bindings": [
                {
                    "name": "",
                    "id": "535c5f66-8446-40bc-ad25-f201b27f6a80",
                    "path": "<Keyboard>/space",
                    "interactions": "",
                    "processors": "",
                    "groups": "Mouse & Keyboard",
                    "action": "Jump",
                    "isComposite": false,
                    "isPartOfComposite": false
                },
                {
                    "name": "",
                    "id": "e86bf97d-37db-4c3e-92e7-4d9b249c1c6a",
                    "path": "<Gamepad>/buttonSouth",
                    "interactions": "",
                    "processors": "",
                    "groups": "Gamepad",
                    "action": "Jump",
                    "isComposite": false,
                    "isPartOfComposite": false
                },
                {
                    "name": "",
                    "id": "41508a5e-b998-4994-a52d-a5ed2d966db7",
                    "path": "<Keyboard>/shift",
                    "interactions": "",
                    "processors": "",
                    "groups": "Mouse & Keyboard",
                    "action": "Dodge",
                    "isComposite": false,
                    "isPartOfComposite": false
                },
                {
                    "name": "",
                    "id": "6389042d-439e-47fb-bc0c-57c9ea5dd5e0",
                    "path": "<Gamepad>/rightShoulder",
                    "interactions": "",
                    "processors": "",
                    "groups": "Gamepad",
                    "action": "Dodge",
                    "isComposite": false,
                    "isPartOfComposite": false
                },
                {
                    "name": "",
                    "id": "73c13e9a-2cf2-4ce2-8fb5-876410fa9bf8",
                    "path": "<Gamepad>/leftStick",
                    "interactions": "",
                    "processors": "",
                    "groups": "Gamepad",
                    "action": "Move",
                    "isComposite": false,
                    "isPartOfComposite": false
                },
                {
                    "name": "WASD",
                    "id": "a0d7892d-dc31-4268-a290-71ec3cc848c5",
                    "path": "2DVector",
                    "interactions": "",
                    "processors": "",
                    "groups": "",
                    "action": "Move",
                    "isComposite": true,
                    "isPartOfComposite": false
                },
                {
                    "name": "up",
                    "id": "e9c8cec1-dca0-46e4-a8e3-c849d4df1827",
                    "path": "<Keyboard>/w",
                    "interactions": "",
                    "processors": "",
                    "groups": "Mouse & Keyboard",
                    "action": "Move",
                    "isComposite": false,
                    "isPartOfComposite": true
                },
                {
                    "name": "down",
                    "id": "c09432dc-2108-4657-9f27-4e205c6c1fa4",
                    "path": "<Keyboard>/s",
                    "interactions": "",
                    "processors": "",
                    "groups": "Mouse & Keyboard",
                    "action": "Move",
                    "isComposite": false,
                    "isPartOfComposite": true
                },
                {
                    "name": "left",
                    "id": "47275a99-31fb-4349-a071-5ca00174c7ab",
                    "path": "<Keyboard>/a",
                    "interactions": "",
                    "processors": "",
                    "groups": "Mouse & Keyboard",
                    "action": "Move",
                    "isComposite": false,
                    "isPartOfComposite": true
                },
                {
                    "name": "right",
                    "id": "13e94e23-a7f1-45da-901b-752325e46ece",
                    "path": "<Keyboard>/d",
                    "interactions": "",
                    "processors": "",
                    "groups": "Mouse & Keyboard",
                    "action": "Move",
                    "isComposite": false,
                    "isPartOfComposite": true
                },
                {
                    "name": "Arrow Keys",
                    "id": "adec5906-2765-4bb9-b6e8-1d5ce8a24c70",
                    "path": "2DVector",
                    "interactions": "",
                    "processors": "",
                    "groups": "",
                    "action": "Move",
                    "isComposite": true,
                    "isPartOfComposite": false
                },
                {
                    "name": "up",
                    "id": "c23e2617-49d9-4e4c-b019-e1eadce7affa",
                    "path": "<Keyboard>/upArrow",
                    "interactions": "",
                    "processors": "",
                    "groups": "Mouse & Keyboard",
                    "action": "Move",
                    "isComposite": false,
                    "isPartOfComposite": true
                },
                {
                    "name": "down",
                    "id": "f60f3c14-bf9d-4424-a36b-c3a41d6dbf76",
                    "path": "<Keyboard>/downArrow",
                    "interactions": "",
                    "processors": "",
                    "groups": "Mouse & Keyboard",
                    "action": "Move",
                    "isComposite": false,
                    "isPartOfComposite": true
                },
                {
                    "name": "left",
                    "id": "6713c18a-6da6-47cd-982d-12e42995f971",
                    "path": "<Keyboard>/leftArrow",
                    "interactions": "",
                    "processors": "",
                    "groups": "Mouse & Keyboard",
                    "action": "Move",
                    "isComposite": false,
                    "isPartOfComposite": true
                },
                {
                    "name": "right",
                    "id": "3b0d4279-4986-453f-95af-682a3b8c56bb",
                    "path": "<Keyboard>/rightArrow",
                    "interactions": "",
                    "processors": "",
                    "groups": "Mouse & Keyboard",
                    "action": "Move",
                    "isComposite": false,
                    "isPartOfComposite": true
                },
                {
                    "name": "",
                    "id": "c738f09f-b268-4b1e-97ba-62c59daf0b24",
                    "path": "<Mouse>/delta",
                    "interactions": "",
                    "processors": "",
                    "groups": "Mouse & Keyboard",
                    "action": "Look",
                    "isComposite": false,
                    "isPartOfComposite": false
                },
                {
                    "name": "",
                    "id": "67a96e3a-c545-490c-a275-b4dfc6f665ca",
                    "path": "<Gamepad>/rightStick",
                    "interactions": "",
                    "processors": "",
                    "groups": "Gamepad",
                    "action": "Look",
                    "isComposite": false,
                    "isPartOfComposite": false
                },
                {
                    "name": "",
                    "id": "3165ae3f-6525-4a27-8459-8ec511fd78a6",
                    "path": "<Keyboard>/tab",
                    "interactions": "",
                    "processors": "",
                    "groups": "Mouse & Keyboard",
                    "action": "Target",
                    "isComposite": false,
                    "isPartOfComposite": false
                },
                {
                    "name": "",
                    "id": "ca506974-afb2-401a-b9e4-f69fc7ca7f94",
                    "path": "<Gamepad>/leftTrigger",
                    "interactions": "",
                    "processors": "",
                    "groups": "Gamepad",
                    "action": "Target",
                    "isComposite": false,
                    "isPartOfComposite": false
                },
                {
                    "name": "",
                    "id": "0b8752a8-aef7-45cf-9cd2-6ad918d17782",
                    "path": "<Keyboard>/escape",
                    "interactions": "",
                    "processors": "",
                    "groups": "Mouse & Keyboard",
                    "action": "Cancel",
                    "isComposite": false,
                    "isPartOfComposite": false
                },
                {
                    "name": "",
                    "id": "f43dbf50-4f8b-4c70-967e-a4ed1a3a42be",
                    "path": "<Gamepad>/leftShoulder",
                    "interactions": "",
                    "processors": "",
                    "groups": "Gamepad",
                    "action": "Cancel",
                    "isComposite": false,
                    "isPartOfComposite": false
                },
                {
                    "name": "",
                    "id": "61fde3a0-f911-4d40-a1fd-af3b23a87898",
                    "path": "<Mouse>/leftButton",
                    "interactions": "",
                    "processors": "",
                    "groups": "Mouse & Keyboard",
                    "action": "Attack",
                    "isComposite": false,
                    "isPartOfComposite": false
                },
                {
                    "name": "",
                    "id": "b86b555e-103d-43bf-8180-386fde08cd46",
                    "path": "<Gamepad>/buttonWest",
                    "interactions": "",
                    "processors": "",
                    "groups": "Gamepad",
                    "action": "Attack",
                    "isComposite": false,
                    "isPartOfComposite": false
                }
            ]
        }
    ],
    "controlSchemes": [
        {
            "name": "Mouse & Keyboard",
            "bindingGroup": "Mouse & Keyboard",
            "devices": [
                {
                    "devicePath": "<Keyboard>",
                    "isOptional": false,
                    "isOR": false
                },
                {
                    "devicePath": "<Mouse>",
                    "isOptional": false,
                    "isOR": false
                }
            ]
        },
        {
            "name": "Gamepad",
            "bindingGroup": "Gamepad",
            "devices": [
                {
                    "devicePath": "<Gamepad>",
                    "isOptional": false,
                    "isOR": false
                }
            ]
        }
    ]
}